lab1/simulation/qsim/lab1.msim.vcd
$comment
	File created using the following command:
		vcd file lab1.msim.vcd -direction
$end
$date
	Sun Mar 08 10:39:55 2020
$end
$version
	ModelSim Version 10.1d
$end
$timescale
	1ps
$end
$scope module lab1_vlg_vec_tst $end
$var reg 1 ! a $end
$var reg 1 " b $end
$var reg 1 # c $end
$var reg 1 $ d $end
$var reg 1 % e $end
$var wire 1 & o1 $end
$var wire 1 ' o2 $end
$var wire 1 ( o3 $end
$var wire 1 ) sampler $end
$scope module i1 $end
$var wire 1 * gnd $end
$var wire 1 + vcc $end
$var wire 1 , unknown $end
$var tri1 1 - devclrn $end
$var tri1 1 . devpor $end
$var tri1 1 / devoe $end
$var wire 1 0 e~combout $end
$var wire 1 1 d~combout $end
$var wire 1 2 c~combout $end
$var wire 1 3 inst1~combout $end
$var wire 1 4 a~combout $end
$var wire 1 5 b~combout $end
$var wire 1 6 inst~combout $end
$upscope $end
$upscope $end
$enddefinitions $end
#0
$dumpvars
0!
0"
0#
0$
0%
0&
0'
1(
x)
0*
1+
x,
1-
1.
1/
00
01
02
03
04
05
06
$end
#120000
1#
12
0)
13
1'
#240000
1"
1$
0#
15
11
02
1)
#360000
1#
12
0)
#480000
1!
1%
0"
0$
0#
14
10
05
01
02
1)
03
0(
0'
#600000
1#
12
0)
13
1'
#720000
1"
1$
0#
15
11
02
1)
16
1&
#840000
1#
12
0)
#960000
0!
0%
0"
0$
0#
04
00
05
01
02
1)
06
03
1(
0&
0'
