lab3/lab33/simulation/qsim/lab33.msim.vcd
$comment
	File created using the following command:
		vcd file lab33.msim.vcd -direction
$end
$date
	Mon Mar 09 08:58:21 2020
$end
$version
	ModelSim Version 10.1d
$end
$timescale
	1ps
$end
$scope module count_vlg_vec_tst $end
$var reg 1 ! Clock $end
$var reg 1 " En $end
$var reg 1 # Reset $end
$var wire 1 $ Out [3] $end
$var wire 1 % Out [2] $end
$var wire 1 & Out [1] $end
$var wire 1 ' Out [0] $end
$var wire 1 ( sampler $end
$scope module i1 $end
$var wire 1 ) gnd $end
$var wire 1 * vcc $end
$var wire 1 + unknown $end
$var tri1 1 , devclrn $end
$var tri1 1 - devpor $end
$var tri1 1 . devoe $end
$var wire 1 / Clock~combout $end
$var wire 1 0 En~combout $end
$var wire 1 1 Reset~combout $end
$var wire 1 2 Out[0]~reg0_regout $end
$var wire 1 3 Out[1]~reg0_regout $end
$var wire 1 4 Out[2]~reg0_regout $end
$var wire 1 5 Out[1]~3_combout $end
$var wire 1 6 Out[3]~reg0_regout $end
$upscope $end
$upscope $end
$enddefinitions $end
#0
$dumpvars
0!
0"
1#
0'
0&
0%
0$
x(
0)
1*
x+
1,
1-
1.
0/
00
11
02
03
04
05
06
$end
#5000
1!
1/
0(
#10000
0!
0/
1(
#15000
1!
1/
0(
#20000
0!
0/
1(
#25000
1!
1/
0(
#30000
0!
0/
1(
#35000
1!
1/
0(
#40000
0!
0/
1(
#45000
1!
1/
0(
#50000
0!
0/
1(
#55000
1!
1/
0(
#60000
0!
0/
1(
#65000
1!
1/
0(
#70000
0!
0/
1(
#75000
1!
1/
0(
#80000
0#
0!
01
0/
1(
#85000
1!
1/
0(
#90000
0!
0/
1(
#95000
1!
1/
0(
#100000
0!
0/
1(
#105000
1!
1/
0(
#110000
0!
0/
1(
#115000
1!
1/
0(
#120000
0!
0/
1(
#125000
1!
1/
0(
#130000
0!
0/
1(
#135000
1!
1/
0(
#140000
0!
0/
1(
#145000
1!
1/
0(
#150000
0!
0/
1(
#155000
1!
1/
0(
#160000
1#
0!
11
0/
1(
#165000
1!
1/
0(
#170000
0!
0/
1(
#175000
1!
1/
0(
#180000
0!
0/
1(
#185000
1!
1/
0(
#190000
0!
0/
1(
#195000
1!
1/
0(
#200000
0!
0/
1(
#205000
1!
1/
0(
#210000
0!
0/
1(
#215000
1!
1/
0(
#220000
0!
0/
1(
#225000
1!
1/
0(
#230000
0!
0/
1(
#235000
1!
1/
0(
#240000
0#
0!
01
0/
1(
#245000
1!
1/
0(
#250000
0!
0/
1(
#255000
1!
1/
0(
#260000
0!
0/
1(
#265000
1!
1/
0(
#270000
0!
0/
1(
#275000
1!
1/
0(
#280000
0!
0/
1(
#285000
1!
1/
0(
#290000
0!
0/
1(
#295000
1!
1/
0(
#300000
0!
0/
1(
#305000
1!
1/
0(
#310000
0!
0/
1(
#315000
1!
1/
0(
#320000
1"
1#
0!
10
11
0/
1(
#325000
1!
1/
0(
12
15
1'
#330000
0!
0/
1(
#335000
1!
1/
0(
13
02
05
1&
0'
#340000
0!
0/
1(
#345000
1!
1/
0(
12
15
1'
#350000
0!
0/
1(
#355000
1!
1/
0(
14
03
02
05
1%
0&
0'
#360000
0!
0/
1(
#365000
1!
1/
0(
12
15
1'
#370000
0!
0/
1(
#375000
1!
1/
0(
13
02
05
1&
0'
#380000
0!
0/
1(
#385000
1!
1/
0(
12
15
1'
#390000
0!
0/
1(
#395000
1!
1/
0(
16
04
03
02
05
1$
0%
0&
0'
#400000
0!
0/
1(
#410000
0#
1!
01
1/
0(
06
0$
#420000
0!
0/
1(
#425000
1!
1/
0(
#430000
0!
0/
1(
#435000
1!
1/
0(
#440000
0!
0/
1(
#445000
1!
1/
0(
#450000
0!
0/
1(
#455000
1!
1/
0(
#460000
0!
0/
1(
#465000
1!
1/
0(
#470000
0!
0/
1(
#475000
1!
1/
0(
#480000
1#
0!
11
0/
1(
#485000
1!
1/
0(
12
15
1'
#490000
0!
0/
1(
#495000
1!
1/
0(
13
02
05
1&
0'
#500000
0!
0/
1(
#505000
1!
1/
0(
12
15
1'
#510000
0!
0/
1(
#515000
1!
1/
0(
14
03
02
05
1%
0&
0'
#520000
0!
0/
1(
#525000
1!
1/
0(
12
15
1'
#530000
0!
0/
1(
#535000
1!
1/
0(
13
02
05
1&
0'
#540000
0!
0/
1(
#545000
1!
1/
0(
12
15
1'
#550000
0!
0/
1(
#555000
1!
1/
0(
16
04
03
02
05
1$
0%
0&
0'
#560000
0#
0!
01
0/
1(
06
0$
#565000
1!
1/
0(
#570000
0!
0/
1(
#575000
1!
1/
0(
#580000
0!
0/
1(
#585000
1!
1/
0(
#590000
0!
0/
1(
#595000
1!
1/
0(
#600000
0!
0/
1(
#605000
1!
1/
0(
#610000
0!
0/
1(
#615000
1!
1/
0(
#620000
0!
0/
1(
#625000
1!
1/
0(
#630000
0!
0/
1(
#635000
1!
1/
0(
#640000
0"
0!
00
0/
1(
#645000
1!
1/
0(
#650000
0!
0/
1(
#655000
1!
1/
0(
#660000
0!
0/
1(
#665000
1!
1/
0(
#670000
0!
0/
1(
#675000
1!
1/
0(
#680000
0!
0/
1(
#685000
1!
1/
0(
#690000
0!
0/
1(
#695000
1!
1/
0(
#700000
0!
0/
1(
#705000
1!
1/
0(
#710000
0!
0/
1(
#715000
1!
1/
0(
#720000
0!
0/
1(
#725000
1!
1/
0(
#730000
0!
0/
1(
#735000
1!
1/
0(
#740000
0!
0/
1(
#745000
1!
1/
0(
#750000
0!
0/
1(
#755000
1!
1/
0(
#760000
0!
0/
1(
#765000
1!
1/
0(
#770000
0!
0/
1(
#775000
1!
1/
0(
#780000
0!
0/
1(
#785000
1!
1/
0(
#790000
0!
0/
1(
#795000
1!
1/
0(
#800000
0!
0/
1(
#805000
1!
1/
0(
#810000
0!
0/
1(
#815000
1!
1/
0(
#820000
0!
0/
1(
#825000
1!
1/
0(
#830000
0!
0/
1(
#835000
1!
1/
0(
#840000
0!
0/
1(
#845000
1!
1/
0(
#850000
0!
0/
1(
#855000
1!
1/
0(
#860000
0!
0/
1(
#865000
1!
1/
0(
#870000
0!
0/
1(
#875000
1!
1/
0(
#880000
0!
0/
1(
#885000
1!
1/
0(
#890000
0!
0/
1(
#895000
1!
1/
0(
#900000
0!
0/
1(
#905000
1!
1/
0(
#910000
0!
0/
1(
#915000
1!
1/
0(
#920000
0!
0/
1(
#925000
1!
1/
0(
#930000
0!
0/
1(
#935000
1!
1/
0(
#940000
0!
0/
1(
#945000
1!
1/
0(
#950000
0!
0/
1(
#955000
1!
1/
0(
#960000
0!
0/
1(
#965000
1!
1/
0(
#970000
0!
0/
1(
#975000
1!
1/
0(
#980000
0!
0/
1(
#985000
1!
1/
0(
#990000
0!
0/
1(
#995000
1!
1/
0(
