lab3/lab32/simulation/qsim/lab32.msim.vcd
$comment
	File created using the following command:
		vcd file lab32.msim.vcd -direction
$end
$date
	Sun Mar 08 22:34:03 2020
$end
$version
	ModelSim Version 10.1d
$end
$timescale
	1ps
$end
$scope module DataDistributor_vlg_vec_tst $end
$var reg 1 ! a $end
$var reg 1 " b $end
$var reg 1 # i $end
$var wire 1 $ y0 $end
$var wire 1 % y1 $end
$var wire 1 & y2 $end
$var wire 1 ' y3 $end
$var wire 1 ( sampler $end
$scope module i1 $end
$var wire 1 ) gnd $end
$var wire 1 * vcc $end
$var wire 1 + unknown $end
$var tri1 1 , devclrn $end
$var tri1 1 - devpor $end
$var tri1 1 . devoe $end
$var wire 1 / a~combout $end
$var wire 1 0 b~combout $end
$var wire 1 1 i~combout $end
$var wire 1 2 y0~0_combout $end
$var wire 1 3 y1~0_combout $end
$var wire 1 4 y2~0_combout $end
$var wire 1 5 y3~0_combout $end
$upscope $end
$upscope $end
$enddefinitions $end
#0
$dumpvars
0!
0"
0#
0$
0%
0&
0'
x(
0)
1*
x+
1,
1-
1.
0/
00
01
02
03
04
05
$end
#100000
1#
11
0(
12
1$
#200000
1"
0#
10
01
1(
02
0$
#300000
1#
11
0(
13
1%
#400000
1!
0"
0#
1/
00
01
1(
03
0%
#500000
1#
11
0(
14
1&
#600000
1"
0#
10
01
1(
04
0&
#700000
1#
11
0(
15
1'
#800000
0!
0"
0#
0/
00
01
1(
05
0'
